{
  "page": 1,
  "per_page": 1,
  "photos": [
    {
      "id": 27786532,
      "width": 2592,
      "height": 3240,
      "url": "https://www.pexels.com/photo/a-man-in-a-red-jacket-and-white-pants-27786532/",
      "photographer": "Carlos  Galván",
      "photographer_url": "https://www.pexels.com/@carlos-galvan-271963565",
      "photographer_id": 271963565,
      "avg_color": "#9E5B86",
      "src": {
        "original": "https://images.pexels.com/photos/27786532/pexels-photo-27786532.jpeg",
        "large2x": "https://images.pexels.com/photos/27786532/pexels-photo-27786532.jpeg?auto=compress\u0026cs=tinysrgb\u0026dpr=2\u0026h=650\u0026w=940",
        "large": "https://images.pexels.com/photos/27786532/pexels-photo-27786532.jpeg?auto=compress\u0026cs=tinysrgb\u0026h=650\u0026w=940",
        "medium": "https://images.pexels.com/photos/27786532/pexels-photo-27786532.jpeg?auto=compress\u0026cs=tinysrgb\u0026h=350",
        "small": "https://images.pexels.com/photos/27786532/pexels-photo-27786532.jpeg?auto=compress\u0026cs=tinysrgb\u0026h=130",
        "portrait": "https://images.pexels.com/photos/27786532/pexels-photo-27786532.jpeg?auto=compress\u0026cs=tinysrgb\u0026fit=crop\u0026h=1200\u0026w=800",
        "landscape": "https://images.pexels.com/photos/27786532/pexels-photo-27786532.jpeg?auto=compress\u0026cs=tinysrgb\u0026fit=crop\u0026h=627\u0026w=1200",
        "tiny": "https://images.pexels.com/photos/27786532/pexels-photo-27786532.jpeg?auto=compress\u0026cs=tinysrgb\u0026dpr=1\u0026fit=crop\u0026h=200\u0026w=280"
      },
      "liked": false,
      "alt": "A man in a red jacket and white pants"
    }
  ],
  "total_results": 8000,
  "next_page": "https://api.pexels.com/v1/curated/?page=2\u0026per_page=1"
}